R Notebook
…
wiki <- read_html(url) %>% html_table(fill= NULL)

## Warning: The `fill` argument of `html_table()` is deprecated as of rvest 1.0.0.
## An improved algorithm fills by default so it is no longer needed.

wiki #We can see the scraped data

## [[1]]
## # A tibble: 1 x 2
##   X1    X2                                                                      
##   <lgl> <chr>                                                                   
## 1 NA    This section needs to be updated. Please update this article to reflect
## 
## [[2]]
## # A tibble: 196 x 6
##    Country             `< $1.90[1]` `< $3.20[5]` `< $5.50[6]` Year  Continent   
##    <chr>               <chr>        <chr>        <chr>        <chr> <chr>       
##  1 Afghanistan         N/A          N/A          N/A          N/A   Asia        
##  2 Albania             1.3%         8.2%         33.8%        2017  Europe      
##  3 Algeria             0.4%         3.7%         28.6%        2011  Africa      
##  4 Andorra             N/A          N/A          N/A          N/A   Europe      
##  5 Angola              51.8%        73.2%        89.3%        2018  Africa      
##  6 Antigua and Barbuda N/A          N/A          N/A          N/A   North Ameri
##  7 Argentina           1.3%         1.3%         12.2%        2018  South Ameri
##  8 Armenia             1.4%         9.4%         42.5%        2018  Asia        
##  9 Australia           0.5%         0.7%         0.7%         2014  Oceania     
## 10 Austria             0.3%         0.4%         0.7%         2017  Europe      
## #  with 186 more rows
## 
## [[3]]
## # A tibble: 209 x 8
##    Country        `WorldBank[10]` Year  `CIA[11]` Year  Other Year   Continent  
##    <chr>          <chr>           <chr> <chr>     <chr> <chr> <chr>  <chr>      
##  1 Afghanistan    54.5%           2016  54.5%     2017  N/A   N/A    Asia       
##  2 Albania        14.3%           2012  14.3%     2012  N/A   N/A    Europe     
##  3 Algeria        5.5%            2011  23.0%     2006  N/A   N/A    Africa     
##  4 Andorra        N/A             N/A   N/A       N/A   N/A   N/A    Europe     
##  5 Angola         36.6%           2008  36.6%     2008  N/A   N/A    Africa     
##  6 Anguilla       N/A             N/A   23.0%     2002  N/A   N/A    North Amer
##  7 Antigua and B N/A             N/A   N/A       N/A   N/A   N/A    North Amer
##  8 Argentina      25.7%           2017  25.7%     2017  42.0% 2021[ South Amer
##  9 Armenia        25.7%           2017  32.0%     2013  N/A   N/A    Asia       
## 10 Australia      N/A             N/A   N/A       N/A   N/A   N/A    Oceania    
## #  with 199 more rows
## 
## [[4]]
…
