A3
…
## 
##  Column specification 
## cols(
##   .default = col_double(),
##   lpep_pickup_datetime = col_datetime(format = ""),
##   lpep_dropoff_datetime = col_datetime(format = ""),
##   store_and_fwd_flag = col_character(),
##   ehail_fee = col_logical()
## )
##  Use `spec()` for the full column specifications.

tripdata_df

## # A tibble: 398,632 x 20
##    VendorID lpep_pickup_datetime lpep_dropoff_datet store_and_fwd_f RatecodeID
##       <dbl> <dttm>               <dttm>              <chr>                 <dbl>
##  1        2 2020-02-01 00:10:25  2020-02-01 00:14:34 N                         1
##  2        2 2020-02-01 00:16:59  2020-02-01 00:21:35 N                         1
##  3        2 2020-02-01 00:19:31  2020-02-01 00:25:29 N                         1
##  4        2 2020-02-01 00:43:52  2020-02-01 00:48:58 N                         1
##  5        2 2020-02-01 00:32:53  2020-02-01 00:35:19 N                         1
##  6        2 2020-02-01 00:04:36  2020-02-01 00:10:09 N                         1
##  7        2 2020-02-01 00:49:36  2020-02-01 01:07:27 N                         1
##  8        2 2020-02-01 00:21:08  2020-02-01 00:28:16 N                         1
##  9        2 2020-02-01 00:05:16  2020-02-01 00:16:25 N                         1
## 10        2 2020-02-01 00:59:48  2020-02-01 01:06:26 N                         1
## #  with 398,622 more rows, and 15 more variables: PULocationID <dbl>,
## #   DOLocationID <dbl>, passenger_count <dbl>, trip_distance <dbl>,
## #   fare_amount <dbl>, extra <dbl>, mta_tax <dbl>, tip_amount <dbl>,
## #   tolls_amount <dbl>, ehail_fee <lgl>, improvement_surcharge <dbl>,
## #   total_amount <dbl>, payment_type <dbl>, trip_type <dbl>,
## #   congestion_surcharge <dbl>
…
#Most people pay via Credit card which is represented by code 1. 176,530 trips have been paid through credit card

Question 3  Count the frequency of pickups for each day in February. Visualize the results using a bar chart and show the frequency on the y-axis and the date on the x-axis. Do you detect any patterns? What are your observations? Note: do not include the time in your calculations or the visualization (only use the date)

tripdata_df <- tripdata_df %>%
mutate (day = factor(mday(lpep_pickup_datetime)))
tripdata_df

## # A tibble: 398,632 x 21
##    VendorID lpep_pickup_datetime lpep_dropoff_datet store_and_fwd_f RatecodeID
##       <dbl> <dttm>               <dttm>              <chr>                 <dbl>
##  1        2 2020-02-01 00:10:25  2020-02-01 00:14:34 N                         1
##  2        2 2020-02-01 00:16:59  2020-02-01 00:21:35 N                         1
##  3        2 2020-02-01 00:19:31  2020-02-01 00:25:29 N                         1
##  4        2 2020-02-01 00:43:52  2020-02-01 00:48:58 N                         1
##  5        2 2020-02-01 00:32:53  2020-02-01 00:35:19 N                         1
##  6        2 2020-02-01 00:04:36  2020-02-01 00:10:09 N                         1
##  7        2 2020-02-01 00:49:36  2020-02-01 01:07:27 N                         1
##  8        2 2020-02-01 00:21:08  2020-02-01 00:28:16 N                         1
##  9        2 2020-02-01 00:05:16  2020-02-01 00:16:25 N                         1
## 10        2 2020-02-01 00:59:48  2020-02-01 01:06:26 N                         1
## #  with 398,622 more rows, and 16 more variables: PULocationID <dbl>,
## #   DOLocationID <dbl>, passenger_count <dbl>, trip_distance <dbl>,
## #   fare_amount <dbl>, extra <dbl>, mta_tax <dbl>, tip_amount <dbl>,
## #   tolls_amount <dbl>, ehail_fee <lgl>, improvement_surcharge <dbl>,
## #   total_amount <dbl>, payment_type <dbl>, trip_type <dbl>,
## #   congestion_surcharge <dbl>, day <fct>
…
#Applying function
HourOfDay("2020-02-01 11:10:25")

## [1] 11

# One can try writing multiple dates with yyyy-hh-mm hh:mm:ss format and the created function will return the extracted hour

Question 5- In a new R chunk, apply the function HourOfDay() using each value in the lpep_pickup_datetime column and save the results in a new column called lpep_pickup_hour. Hint: you can use the mutate function in dplyr to apply your function to each row in the dataframe.

ans_5 <- tripdata_df %>%
  mutate(lpep_pickup_hour= HourOfDay(lpep_pickup_datetime))
ans_5

## # A tibble: 398,632 x 22
##    VendorID lpep_pickup_datetime lpep_dropoff_datet store_and_fwd_f RatecodeID
##       <dbl> <dttm>               <dttm>              <chr>                 <dbl>
##  1        2 2020-02-01 00:10:25  2020-02-01 00:14:34 N                         1
##  2        2 2020-02-01 00:16:59  2020-02-01 00:21:35 N                         1
##  3        2 2020-02-01 00:19:31  2020-02-01 00:25:29 N                         1
##  4        2 2020-02-01 00:43:52  2020-02-01 00:48:58 N                         1
##  5        2 2020-02-01 00:32:53  2020-02-01 00:35:19 N                         1
##  6        2 2020-02-01 00:04:36  2020-02-01 00:10:09 N                         1
##  7        2 2020-02-01 00:49:36  2020-02-01 01:07:27 N                         1
##  8        2 2020-02-01 00:21:08  2020-02-01 00:28:16 N                         1
##  9        2 2020-02-01 00:05:16  2020-02-01 00:16:25 N                         1
## 10        2 2020-02-01 00:59:48  2020-02-01 01:06:26 N                         1
## #  with 398,622 more rows, and 17 more variables: PULocationID <dbl>,
## #   DOLocationID <dbl>, passenger_count <dbl>, trip_distance <dbl>,
## #   fare_amount <dbl>, extra <dbl>, mta_tax <dbl>, tip_amount <dbl>,
## #   tolls_amount <dbl>, ehail_fee <lgl>, improvement_surcharge <dbl>,
## #   total_amount <dbl>, payment_type <dbl>, trip_type <dbl>,
## #   congestion_surcharge <dbl>, day <fct>, lpep_pickup_hour <int>
…
# Explanation- The maximum median trip duration is for pick ups that occur at 6am. This would either mean that the duration increases for rides starting at 6 am due to an increased amount of traffic as those are early morning office hours. It can also be due to people travelling early in the morning to reach a destination that is farther off. The next peak is at 15 hours with a median duration of ~13.75 and it decreases toward the end of the day as either the roads are empty or people only travel short distances.  

Question 7- Filter the data and extract the date with the most trips. Do you detect anything interesting (or unusual) with the trips that occurred on that day?

tripdata_df %>%
  group_by(day) %>%
  summarise(Count= n()) %>%
  arrange(desc(Count))

## # A tibble: 30 x 2
##    day   Count
##    <fct> <int>
##  1 14    16574
##  2 28    16246
##  3 27    16034
##  4 7     15977
##  5 13    15516
##  6 21    15069
##  7 12    14963
##  8 5     14893
##  9 6     14846
## 10 26    14748
## #  with 20 more rows
…
