A3
…
## 
##  Column specification 
## cols(
##   .default = col_double(),
##   lpep_pickup_datetime = col_datetime(format = ""),
##   lpep_dropoff_datetime = col_datetime(format = ""),
##   store_and_fwd_flag = col_character(),
##   ehail_fee = col_logical()
## )
##  Use `spec()` for the full column specifications.

tripdata_df

## # A tibble: 398,632 x 20
##    VendorID lpep_pickup_datetime lpep_dropoff_datet store_and_fwd_f RatecodeID
##       <dbl> <dttm>               <dttm>              <chr>                 <dbl>
##  1        2 2020-02-01 00:10:25  2020-02-01 00:14:34 N                         1
##  2        2 2020-02-01 00:16:59  2020-02-01 00:21:35 N                         1
##  3        2 2020-02-01 00:19:31  2020-02-01 00:25:29 N                         1
##  4        2 2020-02-01 00:43:52  2020-02-01 00:48:58 N                         1
##  5        2 2020-02-01 00:32:53  2020-02-01 00:35:19 N                         1
##  6        2 2020-02-01 00:04:36  2020-02-01 00:10:09 N                         1
##  7        2 2020-02-01 00:49:36  2020-02-01 01:07:27 N                         1
##  8        2 2020-02-01 00:21:08  2020-02-01 00:28:16 N                         1
##  9        2 2020-02-01 00:05:16  2020-02-01 00:16:25 N                         1
## 10        2 2020-02-01 00:59:48  2020-02-01 01:06:26 N                         1
## #  with 398,622 more rows, and 15 more variables: PULocationID <dbl>,
## #   DOLocationID <dbl>, passenger_count <dbl>, trip_distance <dbl>,
## #   fare_amount <dbl>, extra <dbl>, mta_tax <dbl>, tip_amount <dbl>,
## #   tolls_amount <dbl>, ehail_fee <lgl>, improvement_surcharge <dbl>,
## #   total_amount <dbl>, payment_type <dbl>, trip_type <dbl>,
## #   congestion_surcharge <dbl>
…
#Missing value
tripdata_df$NA_frequency <- rowSums(apply (is.na (tripdata_df), 2, as.numeric))
tripdata_df

## # A tibble: 398,632 x 21
##    VendorID lpep_pickup_datetime lpep_dropoff_datet store_and_fwd_f RatecodeID
##       <dbl> <dttm>               <dttm>              <chr>                 <dbl>
##  1        2 2020-02-01 00:10:25  2020-02-01 00:14:34 N                         1
##  2        2 2020-02-01 00:16:59  2020-02-01 00:21:35 N                         1
##  3        2 2020-02-01 00:19:31  2020-02-01 00:25:29 N                         1
##  4        2 2020-02-01 00:43:52  2020-02-01 00:48:58 N                         1
##  5        2 2020-02-01 00:32:53  2020-02-01 00:35:19 N                         1
##  6        2 2020-02-01 00:04:36  2020-02-01 00:10:09 N                         1
##  7        2 2020-02-01 00:49:36  2020-02-01 01:07:27 N                         1
##  8        2 2020-02-01 00:21:08  2020-02-01 00:28:16 N                         1
##  9        2 2020-02-01 00:05:16  2020-02-01 00:16:25 N                         1
## 10        2 2020-02-01 00:59:48  2020-02-01 01:06:26 N                         1
## #  with 398,622 more rows, and 16 more variables: PULocationID <dbl>,
## #   DOLocationID <dbl>, passenger_count <dbl>, trip_distance <dbl>,
## #   fare_amount <dbl>, extra <dbl>, mta_tax <dbl>, tip_amount <dbl>,
## #   tolls_amount <dbl>, ehail_fee <lgl>, improvement_surcharge <dbl>,
## #   total_amount <dbl>, payment_type <dbl>, trip_type <dbl>,
## #   congestion_surcharge <dbl>, NA_frequency <dbl>
…
